Example Table.txt
      <table>
        <thead></thead>
        <th></th>
        <tbody>
          <td>
            <tr>ID</tr>
            <tr>1</tr>
            <tr>2</tr>
            <tr>3</tr>
            <tr>4</tr>
            <tr>5</tr>
            <tr>6</tr>
            <tr>7</tr>
            <tr>8</tr>
            <tr>9</tr>
          <td>

            <tr>Name</tr>
            <tr>Student Name No.1</tr>
            <tr>Student Name No.2</tr>
            <tr>Student Name No.3</tr>
            <tr>Student Name No.4</tr>
            <tr>Student Name No.5</tr>
            <tr>Student Name No.6</tr>
            <tr>Student Name No.7</tr>
            <tr>Student Name No.8</tr>
            <tr>Student Name No.9</tr>
          <td>

          <td>
            <tr>Enrollment</tr>
            <tr>10/2/2011 9:27:55 PM</tr>
            <tr>10/2/2011 9:27:55 PM</tr>
            <tr>10/2/2011 9:27:55 PM</tr>
            <tr>10/2/2011 9:27:55 PM</tr>
            <tr>10/2/2011 9:27:55 PM</tr>
            <tr>10/2/2011 9:27:55 PM</tr>
            <tr>10/2/2011 9:27:55 PM</tr>
            <tr>10/2/2011 9:27:55 PM</tr>
            <tr>10/2/2011 9:27:55 PM</tr>
          </td>

          <td>
            <tr>Score</tr>
            <tr>80</tr>
            <tr>74</tr>
            <tr>61</tr>
            <tr>77</tr>
            <tr>78</tr>
            <tr>99</tr>
            <tr>99</tr>
            <tr>75</tr>
            <tr>99</tr>
          <td>
        </tbody>
        <tfoot></tfoot>

      </table>